{
    "fluentMethods": true,
    "relationships": [],
    "fields": [
        {
            "fieldName": "phone",
            "fieldType": "Integer",
            "fieldValidateRules": [
                "required"
            ]
        },
        {
            "fieldName": "personName",
            "fieldType": "String",
            "fieldValidateRules": [
                "required"
            ]
        },
        {
            "fieldName": "email",
            "fieldType": "String",
            "fieldValidateRules": [
                "required"
            ]
        },
        {
            "fieldName": "purpose",
            "fieldType": "String"
        }
    ],
    "dto": "no",
    "service": "serviceImpl",
    "entityTableName": "contact",
    "pagination": "infinite-scroll"
}
